{
  "electionStore" : {
    "configurations" : {
      "bannerScore" : 100
    },
    "parties" : [ {
      "backgroundMusic" : [ {
        "music" : "http://ikslogics.com/files/pti_song1.mp3",
        "musicID" : 1
      }, {
        "music" : "http://ikslogics.com/files/pti_song2.mp3",
        "musicID" : 2
      }, {
        "music" : "http://ikslogics.com/files/pti_song3.mp3",
        "musicID" : 3
      } ],
      "defaultOpponent" : 2,
      "flag" : "pti_logo.png",
      "fullName" : "Pakistan Tehreek e Insaaf",
      "logo" : "image.png",
      "members" : [ {
        "destroyScore" : 15,
        "images" : [ {
          "image" : "imran.png",
          "sequence" : 0
        }, {
          "image" : "imran_h1.png",
          "sequence" : 1
        }, {
          "image" : "iimran_h2.png",
          "sequence" : 2
        } ],
        "memberID" : 1,
        "name" : "Imran Khan Niazi",
        "priority" : 1
      }, {
        "destroyScore" : 10,
        "images" : [ {
          "image" : "mehmood.png",
          "sequence" : 0
        }, {
          "image" : "mehmood_h1.png",
          "sequence" : 1
        }, {
          "image" : "mehmood_h2.png",
          "sequence" : 2
        } ],
        "memberID" : 2,
        "name" : "Shah mehmood Qureshi",
        "priority" : 1
      }, {
        "destroyScore" : 10,
        "images" : [ {
          "image" : "mazari.png",
          "sequence" : 0
        }, {
          "image" : "mazari_h1.png",
          "sequence" : 1
        }, {
          "image" : "mazari_h2.png",
          "sequence" : 2
        } ],
        "memberID" : 3,
        "name" : "shireen mazari",
        "priority" : 1
      }, {
        "destroyScore" : 10,
        "images" : [ {
          "image" : "pervaiz.png",
          "sequence" : 0
        }, {
          "image" : "pervaiz_h1.png",
          "sequence" : 1
        }, {
          "image" : "pervaiz_h2.png",
          "sequence" : 2
        } ],
        "memberID" : 4,
        "name" : "Sheikh Rasheed",
        "priority" : 1
      } ],
      "pID" : 1,
      "posters" : [ {
        "image" : "sp_p1.png",
        "imageX" : 86,
        "imageY" : 4,
        "label" : "",
        "opponentID" : 2,
        "posterID" : 1,
        "scoreX" : 25,
        "scoreY" : 80
      }, {
        "image" : "sp_p6.png",
        "imageX" : 86,
        "imageY" : 4,
        "label" : "",
        "opponentID" : 2,
        "posterID" : 2,
        "scoreX" : 25,
        "scoreY" : 80
      }, {
        "image" : "sp_p7.png",
        "imageX" : 86,
        "imageY" : 4,
        "label" : "",
        "opponentID" : 2,
        "posterID" : 2,
        "scoreX" : 25,
        "scoreY" : 80
      }, {
        "image" : "sp_p8.png",
        "imageX" : 86,
        "imageY" : 4,
        "label" : "",
        "opponentID" : 3,
        "posterID" : 2,
        "scoreX" : 25,
        "scoreY" : 80
      } ],
      "shortName" : "PTI",
      "sortOrder" : 1
    }, {
      "backgroundMusic" : [ {
        "music" : "http://ikslogics.com/files/pmln.mp3",
        "musicID" : 1
      }, {
        "music" : "http://ikslogics.com/files/pmln2.mp3",
        "musicID" : 2
      } ],
      "defaultOpponent" : 1,
      "flag" : "pmln_logo.png",
      "fullName" : "Pakistan Muslim League ",
      "logo" : "image.png",
      "members" : [ {
        "destroyScore" : 15,
        "images" : [ {
          "image" : "nawaz.png",
          "sequence" : 0
        }, {
          "image" : "nawaz_h1.png",
          "sequence" : 1
        }, {
          "image" : "nawaz_h2.png",
          "sequence" : 2
        } ],
        "memberID" : 1,
        "name" : "Mian Muhammad Nawaz Sharif",
        "priority" : 1
      }, {
        "destroyScore" : 10,
        "images" : [ {
          "image" : "shahbaz.png",
          "sequence" : 0
        }, {
          "image" : "shahbaz_h1.png",
          "sequence" : 1
        }, {
          "image" : "shahbaz_h2.png",
          "sequence" : 2
        } ],
        "memberID" : 2,
        "name" : "Mian Muhammad Shahbaz Sharif",
        "priority" : 1
      }, {
        "destroyScore" : 10,
        "images" : [ {
          "image" : "maryam.png",
          "sequence" : 0
        }, {
          "image" : "maryam_h1.png",
          "sequence" : 1
        }, {
          "image" : "maryam_h2.png",
          "sequence" : 2
        } ],
        "memberID" : 3,
        "name" : "maryam nawaz",
        "priority" : 1
      }, {
        "destroyScore" : 10,
        "images" : [ {
          "image" : "khawaja.png",
          "sequence" : 0
        }, {
          "image" : "khawaja_h1.png",
          "sequence" : 1
        }, {
          "image" : "khawaja_h2.png",
          "sequence" : 2
        } ],
        "memberID" : 4,
        "name" : "khawaja saad rafique",
        "priority" : 1
      } ],
      "pID" : 2,
      "posters" : [ {
        "image" : "sp_p4.png",
        "imageX" : 86,
        "imageY" : 4,
        "label" : "",
        "opponentID" : 1,
        "posterID" : 1,
        "scoreX" : 25,
        "scoreY" : 80
      }, {
        "image" : "sp_p2.png",
        "imageX" : 86,
        "imageY" : 4,
        "label" : "",
        "opponentID" : 1,
        "posterID" : 2,
        "scoreX" : 25,
        "scoreY" : 80
      }, {
        "image" : "sp_p5.png",
        "imageX" : 86,
        "imageY" : 4,
        "label" : "",
        "opponentID" : 1,
        "posterID" : 3,
        "scoreX" : 25,
        "scoreY" : 80
      }, {
        "image" : "sp_p3.png",
        "imageX" : 86,
        "imageY" : 4,
        "label" : "",
        "opponentID" : 3,
        "posterID" : 3,
        "scoreX" : 25,
        "scoreY" : 80
      }, {
        "image" : "sp_p8.png",
        "imageX" : 86,
        "imageY" : 4,
        "label" : "",
        "opponentID" : 3,
        "posterID" : 3,
        "scoreX" : 25,
        "scoreY" : 80
      } ],
      "shortName" : "PML(N)",
      "sortOrder" : 2
    }, {
      "backgroundMusic" : [ {
        "music" : "http://ikslogics.com/files/ppp_song.mp3",
        "musicID" : 1
      } ],
      "defaultOpponent" : 1,
      "flag" : "ppp_logo.png",
      "fullName" : "Pakistan Peoples Party ",
      "logo" : "ppp_logo.png",
      "members" : [ {
        "destroyScore" : 15,
        "images" : [ {
          "image" : "zardari.png",
          "sequence" : 0
        }, {
          "image" : "zardari_h1.png",
          "sequence" : 1
        }, {
          "image" : "zardari_h2.png",
          "sequence" : 2
        } ],
        "memberID" : 1,
        "name" : "Asif Ali zardari",
        "priority" : 1
      }, {
        "destroyScore" : 10,
        "images" : [ {
          "image" : "bilawal.png",
          "sequence" : 0
        }, {
          "image" : "bilawal_h1.png",
          "sequence" : 1
        }, {
          "image" : "bilawal_h2.png",
          "sequence" : 1
        } ],
        "memberID" : 2,
        "name" : "Bilawal bhutto zardari",
        "priority" : 2
      }, {
        "destroyScore" : 10,
        "images" : [ {
          "image" : "shirin.png",
          "sequence" : 0
        }, {
          "image" : "shirin_h1.png",
          "sequence" : 1
        }, {
          "image" : "shirin_h2.png",
          "sequence" : 2
        } ],
        "memberID" : 3,
        "name" : "shereen rehman",
        "priority" : 1
      }, {
        "destroyScore" : 10,
        "images" : [ {
          "image" : "rehman.png",
          "sequence" : 0
        }, {
          "image" : "rehman_h1.png",
          "sequence" : 1
        }, {
          "image" : "rehman_h2.png",
          "sequence" : 2
        } ],
        "memberID" : 4,
        "name" : "Rehman Malik",
        "priority" : 1
      } ],
      "pID" : 3,
      "posters" : [ {
        "image" : "sp_p6.png",
        "imageX" : 86,
        "imageY" : 4,
        "label" : "",
        "opponentID" : 2,
        "posterID" : 1,
        "scoreX" : 25,
        "scoreY" : 80
      }, {
        "image" : "sp_p7.png",
        "imageX" : 86,
        "imageY" : 4,
        "label" : "",
        "opponentID" : 2,
        "posterID" : 1,
        "scoreX" : 25,
        "scoreY" : 80
      }, {
        "image" : "sp_p2.png",
        "imageX" : 86,
        "imageY" : 4,
        "label" : "",
        "opponentID" : 1,
        "posterID" : 1,
        "scoreX" : 25,
        "scoreY" : 80
      },{
        "image" : "sp_p8.png",
        "imageX" : 86,
        "imageY" : 4,
        "label" : "",
        "opponentID" : 1,
        "posterID" : 1,
        "scoreX" : 25,
        "scoreY" : 80
      },{
        "image" : "sp_p8.png",
        "imageX" : 86,
        "imageY" : 4,
        "label" : "",
        "opponentID" : 2,
        "posterID" : 1,
        "scoreX" : 25,
        "scoreY" : 80
      } ],
      "shortName" : "PPP",
      "sortOrder" : 3
    }, {
      "backgroundMusic" : [ {
        "music" : "",
        "musicID" : 1
      } ],
      "defaultOpponent" : 0,
      "flag" : "",
      "fullName" : "Others Party ",
      "logo" : "",
      "members" : [ {
        "destroyScore" : 10,
        "images" : [ {
          "image" : "mulana.png",
          "sequence" : 0
        }, {
          "image" : "mulana_h1.png",
          "sequence" : 1
        }, {
          "image" : "mulana_h2.png",
          "sequence" : 2
        } ],
        "memberID" : 1,
        "name" : "Molana Fazul Rehman",
        "priority" : 1
      }, {
        "destroyScore" : 10,
        "images" : [ {
          "image" : "gulalai.png",
          "sequence" : 0
        }, {
          "image" : "gulalai_h1.png",
          "sequence" : 1
        }, {
          "image" : "gulalai_h2.png",
          "sequence" : 1
        } ],
        "memberID" : 2,
        "name" : "Ayesha Gulalai",
        "priority" : 2
      }, {
        "destroyScore" : 10,
        "images" : [ {
          "image" : "altaf.png",
          "sequence" : 0
        }, {
          "image" : "altaf_h1.png",
          "sequence" : 1
        }, {
          "image" : "altaf_h2.png",
          "sequence" : 2
        } ],
        "memberID" : 3,
        "name" : "Altaf Hussain",
        "priority" : 1
      }, {
        "destroyScore" : 10,
        "images" : [ {
          "image" : "qadri.png",
          "sequence" : 0
        }, {
          "image" : "qadri_h1.png",
          "sequence" : 1
        }, {
          "image" : "qadri_h2.png",
          "sequence" : 2
        } ],
        "memberID" : 3,
        "name" : "tahir ul qadri ",
        "priority" : 1
      } ],
      "pID" : 4,
      "posters" : [ {
        "image" : "pmln_poster.jpg",
        "imageX" : 20,
        "imageY" : 70,
        "label" : "",
        "opponentID" : 1,
        "posterID" : 1,
        "scoreX" : 25,
        "scoreY" : 80
      }, {
        "image" : "pmln_poster2.jpg",
        "imageX" : 20,
        "imageY" : 70,
        "label" : "",
        "opponentID" : 1,
        "posterID" : 2,
        "scoreX" : 25,
        "scoreY" : 80
      }, {
        "image" : "pmln_poster3.jpeg",
        "imageX" : 20,
        "imageY" : 70,
        "label" : "",
        "opponentID" : 1,
        "posterID" : 3,
        "scoreX" : 25,
        "scoreY" : 80
      } ],
      "shortName" : "PPP",
      "sortOrder" : 3
    } ],
    "scenes" : [ {
      "backgroundImage" : "game_bg.png",
      "hiders" : [ {
        "hID" : 7,
        "image" : "t3_left.png",
        "scale" : 0.3,
        "side" : 0,
        "x" : -2,
        "y" : 26
      }, {
        "hID" : 8,
        "image" : "t3_left.png",
        "scale" : 0.3,
        "side" : 0,
        "x" : 14,
        "y" : 26
      }, {
        "hID" : 9,
        "image" : "t3_left.png",
        "scale" : 0.3,
        "side" : 0,
        "x" : 30,
        "y" : 26
      }, {
        "hID" : 10,
        "image" : "t3_right.png",
        "scale" : 0.3,
        "side" : 1,
        "x" : 30,
        "y" : 26
      }, {
        "hID" : 11,
        "image" : "t3_right.png",
        "scale" : 0.3,
        "side" : 1,
        "x" : 14,
        "y" : 26
      }, {
        "hID" : 12,
        "image" : "t3_right.png",
        "scale" : 0.3,
        "side" : 1,
        "x" : -2,
        "y" : 26
      }, {
        "hID" : 3,
        "image" : "t2_left.png",
        "scale" : 0.55,
        "side" : 0,
        "x" : -3,
        "y" : 14
      }, {
        "hID" : 4,
        "image" : "t2_left.png",
        "scale" : 0.55,
        "side" : 0,
        "x" : 22,
        "y" : 14
      }, {
        "hID" : 5,
        "image" : "t2_right.png",
        "scale" : 0.55,
        "side" : 1,
        "x" : 22,
        "y" : 14
      }, {
        "hID" : 6,
        "image" : "t2_right.png",
        "scale" : 0.55,
        "side" : 1,
        "x" : -3,
        "y" : 14
      }, {
        "hID" : 1,
        "image" : "t1_left.png",
        "scale" : 0.9,
        "side" : 0,
        "x" : -4,
        "y" : -6
      }, {
        "hID" : 2,
        "image" : "t1_right.png",
        "scale" : 0.9,
        "side" : 1,
        "x" : -6,
        "y" : -6
      } ],
      "pID" : 1,
      "sID" : 1,
      "sName" : "scene 1"
    } ]
  }
}
